Estudo sobre auto-encoders
…
train_dae <- predict(model, x_train)
train_dae %>% as_tibble()

## Warning: The `x` argument of `as_tibble.matrix()` must have unique column names if `.name_repair` is omitted as of tibble 2.0.0.
## Using compatibility `.name_repair`.

## # A tibble: 100,000 x 50
##           V1        V2       V3        V4        V5         V6       V7       V8
##        <dbl>     <dbl>    <dbl>     <dbl>     <dbl>      <dbl>    <dbl>    <dbl>
##  1  -8.92e-5 -0.00106   0.141    -1.30e-2   3.91e-2   -5.79e-3 -2.21e-3  3.90e-5
##  2   9.03e-5  0.000157 -0.00248  -4.07e-4   5.14e-2    9.58e-2 -1.26e-5 -6.77e-4
##  3  -1.26e-3 -0.00198  -0.00489   3.50e-3   1.04e-2    8.99e-3 -2.42e-3 -8.19e-3
##  4  -4.03e-3  0.000166 -0.00190   3.43e-3  -3.09e-3    1.01e-3 -1.16e-3  7.49e-2
##  5  -8.64e-4 -0.00265   0.00182   1.53e-5   1.82e-3   -1.78e-3  1.14e-3 -9.82e-4
##  6  -7.76e-4 -0.000781 -0.00190   9.15e-4  -2.11e-4    4.69e-4 -5.07e-4 -4.85e-4
##  7   1.99e-2 -0.00347  -0.00630   5.17e-2  -8.04e-5    2.66e-3 -2.88e-3 -3.02e-3
##  8  -5.86e-4 -0.00240  -0.00204   8.52e-2   1.45e-3    5.40e-3  1.09e-1 -2.74e-3
##  9   2.28e-3  0.0324   -0.00400   1.83e-4   8.44e-5   -5.93e-6  3.75e-4  5.22e-4
## 10  -8.96e-5 -0.00113   0.161     1.83e-3  -1.58e-3    1.89e-3 -1.45e-4 -2.82e-3
## #  with 99,990 more rows, and 42 more variables: V9 <dbl>, V10 <dbl>,
## #   V11 <dbl>, V12 <dbl>, V13 <dbl>, V14 <dbl>, V15 <dbl>, V16 <dbl>,
## #   V17 <dbl>, V18 <dbl>, V19 <dbl>, V20 <dbl>, V21 <dbl>, V22 <dbl>,
## #   V23 <dbl>, V24 <dbl>, V25 <dbl>, V26 <dbl>, V27 <dbl>, V28 <dbl>,
## #   V29 <dbl>, V30 <dbl>, V31 <dbl>, V32 <dbl>, V33 <dbl>, V34 <dbl>,
## #   V35 <dbl>, V36 <dbl>, V37 <dbl>, V38 <dbl>, V39 <dbl>, V40 <dbl>,
## #   V41 <dbl>, V42 <dbl>, V43 <dbl>, V44 <dbl>, V45 <dbl>, V46 <dbl>,
## #   V47 <dbl>, V48 <dbl>, V49 <dbl>, V50 <dbl>
…
